115.30362874139736 -3.0293767613756195e-16 -1.6940091713485833e-16 35.53087825578088
91.38887107724418 48.23105913816286 47.25635723851798 125.79749951027098
1.0327451980391894e-06
4.29350914482907e-06
